[api-updater (non-obsolete-error-filter)] 17/07/2022 05:06:15 p. m. : Starting C:/Program Files/Unity/Hub/Editor/2020.3.15f2/Editor/Data/Tools/ScriptUpdater/APIUpdater.NonObsoleteApiUpdaterDetector.exe
[api-updater (non-obsolete-error-filter)] 
----------------------------------
jit/startup time      : 739.678ms
moved types parse time: 50ms
candidates parse time : 0ms
C# parse time         : 216ms
candidates check time : 25ms
console write time    : 0ms

[api-updater (non-obsolete-error-filter)] 17/07/2022 05:07:01 p. m. : Starting C:/Program Files/Unity/Hub/Editor/2020.3.15f2/Editor/Data/Tools/ScriptUpdater/APIUpdater.NonObsoleteApiUpdaterDetector.exe
[api-updater (non-obsolete-error-filter)] 
----------------------------------
jit/startup time      : 634.5063ms
moved types parse time: 50ms
candidates parse time : 1ms
C# parse time         : 154ms
candidates check time : 23ms
console write time    : 0ms

[api-updater (non-obsolete-error-filter)] 27/09/2022 16:58:41 : Starting C:/Program Files/Unity/Hub/Editor/2020.3.15f2/Editor/Data/Tools/ScriptUpdater/APIUpdater.NonObsoleteApiUpdaterDetector.exe
[api-updater (non-obsolete-error-filter)] 
----------------------------------
jit/startup time      : 722,9511ms
moved types parse time: 49ms
candidates parse time : 1ms
C# parse time         : 273ms
candidates check time : 43ms
console write time    : 0ms

[api-updater (non-obsolete-error-filter)] 08/11/2022 18:06:00 : Starting C:/Program Files/Unity/Hub/Editor/2020.3.15f2/Editor/Data/Tools/ScriptUpdater/APIUpdater.NonObsoleteApiUpdaterDetector.exe
[api-updater (non-obsolete-error-filter)] 
----------------------------------
jit/startup time      : 638,8574ms
moved types parse time: 44ms
candidates parse time : 1ms
C# parse time         : 280ms
candidates check time : 26ms
console write time    : 0ms

[api-updater (non-obsolete-error-filter)] 08/11/2022 18:14:02 : Starting C:/Program Files/Unity/Hub/Editor/2020.3.15f2/Editor/Data/Tools/ScriptUpdater/APIUpdater.NonObsoleteApiUpdaterDetector.exe
[api-updater (non-obsolete-error-filter)] 
----------------------------------
jit/startup time      : 101,0909ms
moved types parse time: 46ms
candidates parse time : 1ms
C# parse time         : 212ms
candidates check time : 33ms
console write time    : 0ms

[api-updater (non-obsolete-error-filter)] 08/11/2022 18:16:14 : Starting C:/Program Files/Unity/Hub/Editor/2020.3.15f2/Editor/Data/Tools/ScriptUpdater/APIUpdater.NonObsoleteApiUpdaterDetector.exe
[api-updater (non-obsolete-error-filter)] 
----------------------------------
jit/startup time      : 72,0654ms
moved types parse time: 74ms
candidates parse time : 1ms
C# parse time         : 195ms
candidates check time : 25ms
console write time    : 0ms

[api-updater (non-obsolete-error-filter)] 09/11/2022 13:25:24 : Starting C:/Program Files/Unity/Hub/Editor/2020.3.15f2/Editor/Data/Tools/ScriptUpdater/APIUpdater.NonObsoleteApiUpdaterDetector.exe
[api-updater (non-obsolete-error-filter)] 
----------------------------------
jit/startup time      : 897,8158ms
moved types parse time: 47ms
candidates parse time : 1ms
C# parse time         : 258ms
candidates check time : 43ms
console write time    : 0ms

[api-updater (non-obsolete-error-filter)] 09/11/2022 13:25:47 : Starting C:/Program Files/Unity/Hub/Editor/2020.3.15f2/Editor/Data/Tools/ScriptUpdater/APIUpdater.NonObsoleteApiUpdaterDetector.exe
[api-updater (non-obsolete-error-filter)] 
----------------------------------
jit/startup time      : 63,0567ms
moved types parse time: 49ms
candidates parse time : 1ms
C# parse time         : 227ms
candidates check time : 43ms
console write time    : 0ms

[api-updater (non-obsolete-error-filter)] 09/11/2022 13:51:47 : Starting C:/Program Files/Unity/Hub/Editor/2020.3.15f2/Editor/Data/Tools/ScriptUpdater/APIUpdater.NonObsoleteApiUpdaterDetector.exe
[api-updater (non-obsolete-error-filter)] 
----------------------------------
jit/startup time      : 88,0809ms
moved types parse time: 50ms
candidates parse time : 1ms
C# parse time         : 183ms
candidates check time : 43ms
console write time    : 0ms

[api-updater (non-obsolete-error-filter)] 09/11/2022 14:37:42 : Starting C:/Program Files/Unity/Hub/Editor/2020.3.15f2/Editor/Data/Tools/ScriptUpdater/APIUpdater.NonObsoleteApiUpdaterDetector.exe
[api-updater (non-obsolete-error-filter)] 
----------------------------------
jit/startup time      : 183,1701ms
moved types parse time: 63ms
candidates parse time : 1ms
C# parse time         : 244ms
candidates check time : 26ms
console write time    : 0ms

[api-updater (non-obsolete-error-filter)] 09/11/2022 14:50:47 : Starting C:/Program Files/Unity/Hub/Editor/2020.3.15f2/Editor/Data/Tools/ScriptUpdater/APIUpdater.NonObsoleteApiUpdaterDetector.exe
[api-updater (non-obsolete-error-filter)] 
----------------------------------
jit/startup time      : 155,1408ms
moved types parse time: 53ms
candidates parse time : 0ms
C# parse time         : 223ms
candidates check time : 30ms
console write time    : 0ms

